…
`simulate_ts()` returns a table with one row for each repetition of each
sampler and each estimator. The columns are

-   `e_name`: name of the estimator
-   `s_name`: name of the sampler
-   `rep_nr`: number of repetition
-   `estimation`: the estimated location of the change point
-   `postpro_ts`: the time series of length *k* returned by the
    post-processor
-   `len`: *k*

``` r
results
## # A tibble: 84 x 6
##    s_name e_name     rep_nr estimation postpro_ts    len
##    <chr>  <chr>       <int>      <dbl> <list>      <int>
##  1 o-.    IYG_PC1_D0      1      192.  <dbl [299]>   299
##  2 o-.    IYG_PC3_D0      1      190.  <dbl [299]>   299
##  3 o-.    IYG_PC1_D1      1       10.5 <dbl [299]>   299
##  4 o-.    IYG_PC3_D1      1       10.5 <dbl [299]>   299
##  5 o-.    LT_D0           1      196.  <dbl [299]>   299
##  6 o-.    LT_D1           1      164.  <dbl [299]>   299
##  7 o-.    FR_M_D0         1      192.  <dbl [259]>   259
##  8 o-.    FR_MV_D0        1      194.  <dbl [259]>   259
##  9 o-.    FR_V_D0         1       59.5 <dbl [259]>   259
## 10 o-.    FR_VV_D0        1      216.  <dbl [259]>   259
## # ... with 74 more rows
```
…
The function `rmae_eval()` calculates the RMAE values from the
simulation results.

``` r
rmae <- rmae_eval(results, samplers, estimators)
rmae
## # A tibble: 28 x 3
##    s_name e_name       rmae
##    <chr>  <chr>       <dbl>
##  1 o-.    FR_M_D0    0.157 
##  2 o-.    FR_M_D1    0.533 
##  3 o-.    FR_MV_D0   0.0806
##  4 o-.    FR_MV_D1   0.524 
##  5 o-.    FR_V_D0    1.50  
##  6 o-.    FR_V_D1    0.909 
##  7 o-.    FR_VV_D0   0.448 
##  8 o-.    FR_VV_D1   0.228 
##  9 o-.    IYG_PC1_D0 0.0481
## 10 o-.    IYG_PC1_D1 1.16  
## # ... with 18 more rows
```
…
